-64 -48 -40 -64 -56 -40 -8 -32 -40 -56 464
-32 -24 -16 -8 -40 -64 -24 -40 -40 -24 600
-16 -8 -56 -40 -48 -40 -56 -32 -64 -56 496
-16 -16 -16 -64 -16 -32 -56 -24 -64 -64 544
-16 -64 -64 -16 -32 -24 -32 -56 -8 -32 568
-64 -40 -64 -16 -8 -24 -16 -40 -8 -8 624
-64 -40 -24 -48 -16 -48 -48 -56 -24 -48 496
-40 -24 -16 -40 -64 -8 -64 -16 -24 -8 608
-40 -56 -48 -32 -32 -8 -8 -8 -64 -16 600
-24 -32 -16 -8 -32 -32 -24 -64 -40 -32 608
-64 -48 -64 -8 -32 -16 -16 -24 -16 -48 576
-40 -56 -24 -8 -64 -8 -64 -48 -48 -24 528
-24 -32 -40 -56 -24 -56 -48 -64 -48 -8 512
-48 -32 -8 -24 -64 -24 -8 -48 -56 -48 552
-64 -32 -16 -24 -8 -24 -8 -40 -40 -8 648
